{
  "functions": {
    "buildYearData": {
      "param": ["saveDataType"],
      "result": {
        "queryType": "mapGroup", "group": [
          {
            "setOfBooksId": {"queryType": "fromParam", "type": "Long", "key": "setOfBooksId"},
            "organizationId": {"queryType": "fromParam", "type": "Long", "key": "organizationId"},
            "period": {"queryType": "fromParam", "key": "period"},
            "dataType": {"queryType": "fromFunctionParam", "key": "saveDataType"},
            "domainId": {"queryType": "fromParam", "key": "domainId"},
            "budgetItemGroupId": {"queryType": "fromParam", "type": "Long", "key": "budgetItemGroupId"},
            "budgetObjectType": "BudgetItem",
            "budgetObjectId": {
              "map": "itemNameAndIdMap", "type": "String",
              "key": {"queryType": "fromExcel", "type": "String", "columnNumber": 0}
            },
            "note": "",
            "amount": {"queryType": "fromParam", "type": "BigDecimal", "key": "cellValue"},
            "excelImportWithAssociations": false
          },
          {
            "store": "yearPlanning",
            "valueField": {"id": "id", "dataType": "dataType"},
            "queryParam": {
              "budgetObjectId": {
                "map": "itemNameAndIdMap", "type": "String",
                "key": {"queryType": "fromExcel", "type": "String", "columnNumber": 0}
              }
            }
          }
        ]
      }
    },
    "buildMonthData": {
      "param": ["saveDataType"],
      "result": {
        "queryType": "mapGroup", "group": [
          {
            "setOfBooksId": {"queryType": "fromParam", "key": "setOfBooksId"},
            "organizationId": {"queryType": "fromParam", "key": "organizationId"},
            "period": {"map": "monthMap", "key": {"queryType": "fromExcel", "type": "String", "rowNumber": 3}},
            "dataType": {"queryType": "fromFunctionParam", "key": "saveDataType"},
            "domainId": {"queryType": "fromParam", "key": "domainId"},
            "budgetItemGroupId": {"queryType": "fromParam", "type": "Long", "key": "budgetItemGroupId"},
            "budgetObjectType": "BudgetItem",
            "budgetObjectId": {
              "map": "itemNameAndIdMap", "type": "String",
              "key": {"queryType": "fromExcel", "type": "String", "columnNumber": 0}
            },
            "amount": {"queryType": "fromParam", "type": "BigDecimal", "key": "cellValue"},
            "excelImportWithAssociations": false
          },
          {
            "map": "monthPlanningMap",
            "valueField": {"id": "id", "dataType": "dataType"},
            "key": {
              "period": {"map": "monthMap", "key": {"queryType": "fromExcel", "type": "String", "rowNumber": 3}},
              "budgetObjectId": {
                "map": "itemNameAndIdMap", "type": "String",
                "key": {"queryType": "fromExcel", "type": "String", "columnNumber": 0}
              }
            }
          }
        ]
      }
    }
  },
  "writeToExcel": {
    "initParam": {
      "budgetItemGroupId": {
        "queryType": "fromMap", "map": "itemGroupNameAndIdMap", "type": "Long", "key": "H08汇总（不含科研）"
      }
    },
    "initStore": ["item", "yearPlanning", "monthPlanning"],
    "initMap": ["itemNameAndIdMap", "monthPlanningMap"],
    "rule": [
      {
        "start": "4,1", "end": "124,1",
        "value": {
          "store": "yearPlanning",
          "valueField": "amount",
          "queryParam": {
            "budgetObjectId": {
              "map": "itemNameAndIdMap", "type": "String",
              "key": {"queryType": "fromExcel", "type": "String", "columnNumber": 0}
            }
          }
        }
      },
      {
        "start": "4,2", "end": "124,13",
        "value": {
          "map": "monthPlanningMap",
          "valueField": "amount",
          "key": {
            "budgetObjectId": {
              "map": "itemNameAndIdMap",
              "type": "String",
              "key": {"queryType": "fromExcel", "type": "String", "columnNumber": 0}
            },
            "period": {
              "map": "monthMap",
              "key": {"queryType": "fromExcel", "type": "String", "rowNumber": 3}
            }
          }
        }
      }
    ]
  },
  "readFromExcel": {
    "initParam": {
      "budgetItemGroupId": {
        "queryType": "fromMap",
        "map": "itemGroupNameAndIdMap",
        "type": "Long",
        "key": "H08汇总（不含科研）"
      }
    },
    "initStore": ["item", "yearPlanning", "monthPlanning"],
    "initMap": ["itemNameAndIdMap", "monthPlanningMap"],
    "rule": [
      {
        "start": "4,1", "end": "124,1",
        "value": {
          "domainType": "AnnualCostFinancialData", "queryType": "fromFunction", "name": "buildYearData",
          "param": {"saveDataType": "@@SummaryBudget@@Public@@"}
        }
      },
      {
        "start": "4,2", "end": "124,13",
        "value": {
          "domainType": "MonthlyCostFinancialData", "queryType": "fromFunction", "name": "buildMonthData",
          "param": {"saveDataType": "@@SummaryBudget@@Public@@"}
        }
      }
    ],
    "deleteBy": {
      "AnnualCostFinancialData": {"validType": "validBigDecimalZero", "key": "amount"},
      "MonthlyCostFinancialData": {"validType": "validBigDecimalZero", "key": "amount"}
    },
    "mergeTo": {
      "AnnualCostFinancialData": {"store": "yearPlanning"},
      "MonthlyCostFinancialData": {"store": "monthPlanning"}
    }
  },
  "readView": {
    "start": "3,0", "end": "124,17", "lockRowAndColumn": "0,1",
    "typeConfig": [
      {"start": "4,1", "end": "124,17", "type": "BigDecimal"}
    ]
  }
}