{
  "enabled": {
    "validType": "contains",
    "map": "itemGroupNameAndIdMap",
    "key": "key",
    "value": "#excelSheetIndex#"
  },
  "functions": {
    "buildRelatedProject": {
      "param": ["budgetObjectId", "index", "amountColumnIndex"],
      "result": {
        "queryType": "mapGroup", "group": [
          {
            "projectVersionId": {"queryType": "translate", "type": "Long", "value": "-1"},
            "setOfBooksId": {"queryType": "fromParam", "key": "setOfBooksId"},
            "organizationId": {"queryType": "fromParam", "key": "organizationId"},
            "period": {"queryType": "fromParam", "key": "period"},
            "dataType": {"queryType": "fromParam", "key": "projectDataType"},
            "domainId": {"queryType": "fromParam", "key": "domainId"},
            "budgetItemGroupId": {"queryType": "fromParam", "type": "Long", "key": "budgetItemGroupId"},
            "budgetObjectType": "BudgetItem",
            "budgetObjectId": {"queryType": "fromFunctionParam", "key": "budgetObjectId"},
            "rowIndex": {"queryType": "fromParam", "key": "rowNumber"},
            "amount": {
              "queryType": "fromExcel", "type": "BigDecimal", "scale": 2,
              "columnNumber": {"queryType": "fromFunctionParam", "key": "amountColumnIndex"}
            },
            "index": {"queryType": "fromFunctionParam", "key": "index"}
          }, {
            "store": "relatedProject",
            "valueField": {"id": "id", "dataType": "dataType"},
            "queryParam": {
              "projectId": {
                "map": "projectNameAndIdMap",
                "key": {"queryType": "fromExcel", "type": "String", "columnNumber": 1}
              },
              "budgetObjectId": {"queryType": "fromFunctionParam", "key": "budgetObjectId"}
            }
          }
        ]
      }
    },
    "buildProjectYearData": {
      "param": ["budgetObjectId", "index"],
      "result": {
        "queryType": "mapGroup", "group": [
          {
            "setOfBooksId": {"queryType": "fromParam", "key": "setOfBooksId"},
            "organizationId": {"queryType": "fromParam", "key": "organizationId"},
            "period": {"queryType": "fromParam", "key": "period"},
            "dataType": {"queryType": "fromParam", "key": "projectDataType"},
            "domainId": {"queryType": "fromParam", "key": "domainId"},
            "budgetItemGroupId": {"queryType": "translate", "type": "Long", "value": "-1"},
            "budgetObjectType": "ProjectItem",
            "amount": {"queryType": "fromParam", "type": "BigDecimal", "scale": 2, "key": "cellValue"},
            "rowIndex": {"queryType": "fromParam", "key": "rowNumber"},
            "index": {"queryType": "fromFunctionParam", "key": "index"}
          },
          {
            "store": "projectYearPlanning",
            "valueField": {"id": "id", "dataType": "dataType"},
            "queryParam": {
              "budgetObjectId": {"queryType": "fromFunctionParam", "key": "budgetObjectId"}
            }
          }
        ]
      }
    },
    "buildProjectMonthData": {
      "param": ["budgetObjectId", "index"],
      "result": {
        "queryType": "mapGroup", "group": [
          {
            "setOfBooksId": {"queryType": "fromParam", "key": "setOfBooksId"},
            "organizationId": {"queryType": "fromParam", "key": "organizationId"},
            "period": {"map": "monthMap", "key": {"queryType": "fromExcel", "type": "String", "rowNumber": 6}},
            "dataType": {"queryType": "fromParam", "key": "projectDataType"},
            "domainId": {"queryType": "fromParam", "key": "domainId"},
            "budgetItemGroupId": {"queryType": "translate", "type": "Long", "value": "-1"},
            "budgetObjectType": "ProjectItem",
            "amount": {"queryType": "fromParam", "type": "BigDecimal", "scale": 2, "key": "cellValue"},
            "rowIndex": {"queryType": "fromParam", "key": "rowNumber"},
            "index": {"queryType": "fromFunctionParam", "key": "index"}
          },
          {
            "map": "projectMonthPlanningMap",
            "valueField": {"id": "id", "dataType": "dataType"},
            "key": {
              "period": {"map": "monthMap", "key": {"queryType": "fromExcel", "type": "String", "rowNumber": 6}},
              "budgetObjectId": {"queryType": "fromFunctionParam", "key": "budgetObjectId"}
            }
          }
        ]
      }
    },
    "buildYearData": {
      "param": ["budgetObjectId"],
      "result": {
        "queryType": "mapGroup", "group": [
          {
            "setOfBooksId": {"queryType": "fromParam", "key": "setOfBooksId"},
            "organizationId": {"queryType": "fromParam", "key": "organizationId"},
            "period": {"queryType": "fromParam", "key": "period"},
            "dataType": {"queryType": "fromParam", "key": "defaultPageDataType"},
            "domainId": {"queryType": "fromParam", "key": "domainId"},
            "budgetItemGroupId": {"queryType": "fromParam", "type": "Long", "key": "budgetItemGroupId"},
            "budgetObjectType": "BudgetItem",
            "budgetObjectId": {"queryType": "fromFunctionParam", "key": "budgetObjectId"},
            "amount": {"queryType": "fromParam", "type": "BigDecimal", "scale": 2, "key": "cellValue"},
            "excelImportWithAssociations": false
          },
          {
            "store": "yearPlanning",
            "valueField": {"id": "id", "dataType": "dataType"},
            "queryParam": {
              "budgetObjectId": {"queryType": "fromFunctionParam", "key": "budgetObjectId"}
            }
          }
        ]
      }
    },
    "buildMonthData": {
      "param": ["budgetObjectId"],
      "result": {
        "queryType": "mapGroup", "group": [
          {
            "setOfBooksId": {"queryType": "fromParam", "key": "setOfBooksId"},
            "organizationId": {"queryType": "fromParam", "key": "organizationId"},
            "period": {"map": "monthMap", "key": {"queryType": "fromExcel", "type": "String", "rowNumber": 6}},
            "dataType": {"queryType": "fromParam", "key": "defaultPageDataType"},
            "domainId": {"queryType": "fromParam", "key": "domainId"},
            "budgetItemGroupId": {"queryType": "fromParam", "type": "Long", "key": "budgetItemGroupId"},
            "budgetObjectType": "BudgetItem",
            "budgetObjectId": {"queryType": "fromFunctionParam", "key": "budgetObjectId"},
            "amount": {"queryType": "fromParam", "type": "BigDecimal", "scale": 2, "key": "cellValue"},
            "excelImportWithAssociations": false
          },
          {
            "store": "monthPlanning",
            "valueField": {"id": "id", "dataType": "dataType"},
            "queryParam": {
              "period": {"map": "monthMap", "key": {"queryType": "fromExcel", "type": "String", "rowNumber": 6}},
              "budgetObjectId": {"queryType": "fromFunctionParam", "key": "budgetObjectId"}
            }
          }
        ]
      }
    }
  },
  "writeToExcel": {
    "initParam": {
      "budgetItemGroupId": {
        "queryType": "fromMap",
        "map": "itemGroupNameAndIdMap",
        "type": "Long",
        "key": "#excelSheetIndex#"
      },
      "projectDataType": "@@Project@@#dataType#@@",
      "pageDataType": "@@ProjectPlanning@@",
      "defaultPageDataType": "@@ProjectPlanning@@#dataType#@@",
      "projectCategoryCode": "#projectCategoryCode#",
      "projectCategoryId": {"map": "projectCategoryCodeAndIdMap", "type": "Long", "key": "#projectCategoryCode#"},
      "expenseId1": {"map": "expenseItemCodeAndIdMap", "type": "Long", "key": "#expenseItemCode1#"},
      "expenseId2": {"map": "expenseItemCodeAndIdMap", "type": "Long", "key": "#expenseItemCode2#"},
      "expenseId3": {"map": "expenseItemCodeAndIdMap", "type": "Long", "key": "#expenseItemCode3#"},
      "budgetItemId1": {"map": "expenseItemCodeAndBudgetItemIdMap", "type": "Long", "key": "#expenseItemCode1#"},
      "budgetItemId2": {"map": "expenseItemCodeAndBudgetItemIdMap", "type": "Long", "key": "#expenseItemCode2#"},
      "budgetItemId3": {"map": "expenseItemCodeAndBudgetItemIdMap", "type": "Long", "key": "#expenseItemCode3#"}
    },
    "initStore": ["project", "projectItem", "projectMonthPlanning"],
    "initMap": ["projectNameAndIdMap", "projectMonthPlanningMap"],
    "rule": [
      {
        "start": "8,1", "end": "57,1",
        "value": {
          "store": "project",
          "valueField": "name",
          "queryParam": {
            "storeIndex": {"queryType": "fromExcel", "type": "Integer", "columnNumber": 0}
          }
        }
      },
      {
        "start": "8,2", "end": "57,2",
        "value": {
          "store": "projectItem",
          "valueField": "description",
          "queryParam": {
            "projectId": {
              "map": "projectNameAndIdMap",
              "key": {"queryType": "fromExcel", "type": "String", "columnNumber": 1}
            }
          }
        }
      },
      {
        "start": "8,3", "end": "57,3",
        "value": {
          "store": "projectItem",
          "valueField": "amount",
          "queryParam": {
            "projectId": {
              "map": "projectNameAndIdMap",
              "key": {"queryType": "fromExcel", "type": "String", "columnNumber": 1}
            },
            "expenseItemId": {"queryType": "fromParam", "key": "expenseId1"}
          }
        }
      },
      {
        "start": "8,4", "end": "57,4",
        "value": {
          "store": "projectItem",
          "valueField": "amount",
          "queryParam": {
            "projectId": {
              "map": "projectNameAndIdMap",
              "key": {"queryType": "fromExcel", "type": "String", "columnNumber": 1}
            },
            "expenseItemId": {"queryType": "fromParam", "key": "expenseId2"}
          }
        }
      },
      {
        "start": "8,5", "end": "57,5",
        "value": {
          "store": "projectItem",
          "valueField": "amount",
          "queryParam": {
            "projectId": {
              "map": "projectNameAndIdMap",
              "key": {"queryType": "fromExcel", "type": "String", "columnNumber": 1}
            },
            "expenseItemId": {"queryType": "fromParam", "key": "expenseId3"}
          }
        }
      },
      {
        "start": "8,6", "end": "57,17",
        "value": {
          "map": "projectMonthPlanningMap",
          "valueField": "amount",
          "key": {
            "period": {"map": "monthMap", "key": {"queryType": "fromExcel", "type": "String", "rowNumber": 6}},
            "budgetObjectId": {
              "store": "projectItem", "valueField": "id",
              "queryParam": {
                "projectId": {
                  "map": "projectNameAndIdMap",
                  "key": {"queryType": "fromExcel", "type": "String", "columnNumber": 1}
                },
                "expenseItemId": {"queryType": "fromParam", "key": "expenseId1"}
              }
            }
          }
        }
      },
      {
        "start": "8,18", "end": "57,29",
        "value": {
          "map": "projectMonthPlanningMap",
          "valueField": "amount",
          "key": {
            "period": {"map": "monthMap", "key": {"queryType": "fromExcel", "type": "String", "rowNumber": 6}},
            "budgetObjectId": {
              "store": "projectItem", "valueField": "id",
              "queryParam": {
                "projectId": {
                  "map": "projectNameAndIdMap",
                  "key": {"queryType": "fromExcel", "type": "String", "columnNumber": 1}
                },
                "expenseItemId": {"queryType": "fromParam", "key": "expenseId2"}
              }
            }
          }
        }
      },
      {
        "start": "8,30", "end": "57,41",
        "value": {
          "map": "projectMonthPlanningMap",
          "valueField": "amount",
          "key": {
            "period": {"map": "monthMap", "key": {"queryType": "fromExcel", "type": "String", "rowNumber": 6}},
            "budgetObjectId": {
              "store": "projectItem", "valueField": "id",
              "queryParam": {
                "projectId": {
                  "map": "projectNameAndIdMap",
                  "key": {"queryType": "fromExcel", "type": "String", "columnNumber": 1}
                },
                "expenseItemId": {"queryType": "fromParam", "key": "expenseId3"}
              }
            }
          }
        }
      }
    ]
  },
  "readFromExcel": {
    "initParam": {
      "budgetItemGroupId": {
        "queryType": "fromMap",
        "map": "itemGroupNameAndIdMap",
        "type": "Long",
        "key": "#excelSheetIndex#"
      },
      "projectDataType": "@@Project@@#dataType#@@",
      "pageDataType": "@@ProjectPlanning@@",
      "defaultPageDataType": "@@ProjectPlanning@@#dataType#@@",
      "startTime": "#year#-01-01",
      "endTime": "#year#-12-01",
      "projectCategoryCode": "#projectCategoryCode#",
      "projectCategoryId": {"map": "projectCategoryCodeAndIdMap", "type": "Long", "key": "#projectCategoryCode#"},
      "expenseId1": {"map": "expenseItemCodeAndIdMap", "type": "Long", "key": "#expenseItemCode1#"},
      "expenseId2": {"map": "expenseItemCodeAndIdMap", "type": "Long", "key": "#expenseItemCode2#"},
      "expenseId3": {"map": "expenseItemCodeAndIdMap", "type": "Long", "key": "#expenseItemCode3#"},
      "budgetItemId1": {"map": "expenseItemCodeAndBudgetItemIdMap", "type": "Long", "key": "#expenseItemCode1#"},
      "budgetItemId2": {"map": "expenseItemCodeAndBudgetItemIdMap", "type": "Long", "key": "#expenseItemCode2#"},
      "budgetItemId3": {"map": "expenseItemCodeAndBudgetItemIdMap", "type": "Long", "key": "#expenseItemCode3#"}
    },
    "dataValid": [
      {
        "start": "8,3", "end": "57,41", "validType": "nullOrPositive", "scale": 2,
        "message": "nullOrPositiveNotValid"
      },
      {
        "start": "8,1", "end": "57,1", "validType": "unique",
        "message": "uniqueNotValid"
      },
      {
        "startRow": 8, "endRow": 57, "validType": "synchronously",
        "items": [
          {"columnNumber": 1, "type": "String", "validType": "notEmpty"},
          {"columnNumber": 2, "type": "String", "validType": "notEmpty"}
        ],
        "message": "synchronouslyNotValid"
      }
    ],
    "initStore": [
      "project", "projectItem", "relatedProject", "projectYearPlanning", "projectMonthPlanning",
      "yearPlanning", "monthPlanning"
    ],
    "initMap": ["projectNameAndIdMap", "projectNameAndStatusMap", "projectMonthPlanningMap"],
    "rule": [
      {
        "start": "7,3",
        "end": "7,3",
        "value": {
          "domainType": "AnnualCostPlanningData", "queryType": "fromFunction", "name": "buildYearData",
          "param": {
            "budgetObjectId": {"queryType": "fromParam", "type": "String", "key": "budgetItemId1"}
          }
        }
      },
      {
        "start": "7,4",
        "end": "7,4",
        "value": {
          "domainType": "AnnualCostPlanningData", "queryType": "fromFunction", "name": "buildYearData",
          "param": {
            "budgetObjectId": {"queryType": "fromParam", "type": "String", "key": "budgetItemId2"}
          }
        }
      },
      {
        "start": "7,5",
        "end": "7,5",
        "value": {
          "domainType": "AnnualCostPlanningData", "queryType": "fromFunction", "name": "buildYearData",
          "param": {
            "budgetObjectId": {"queryType": "fromParam", "type": "String", "key": "budgetItemId3"}
          }
        }
      },
      {
        "start": "7,6", "end": "7,17",
        "value": {
          "domainType": "MonthlyCostPlanningData", "queryType": "fromFunction", "name": "buildMonthData",
          "param": {
            "budgetObjectId": {"queryType": "fromParam", "type": "String", "key": "budgetItemId1"}
          }
        }
      },
      {
        "start": "7,18", "end": "7,29",
        "value": {
          "domainType": "MonthlyCostPlanningData", "queryType": "fromFunction", "name": "buildMonthData",
          "param": {
            "budgetObjectId": {"queryType": "fromParam", "type": "String", "key": "budgetItemId2"}
          }
        }
      },
      {
        "start": "7,30", "end": "7,41",
        "value": {
          "domainType": "MonthlyCostPlanningData", "queryType": "fromFunction", "name": "buildMonthData",
          "param": {
            "budgetObjectId": {"queryType": "fromParam", "type": "String", "key": "budgetItemId3"}
          }
        }
      },
      {
        "start": "8,1",
        "end": "57,1",
        "value": {
          "domainType": "Project", "queryType": "fromFunction", "name": "buildProject",
          "param": {
            "amountIn": {
              "queryType": "fromMath", "mathType": "add",
              "values": [
                {"queryType": "fromExcel", "type": "BigDecimal", "scale": 2, "columnNumber": 3},
                {"queryType": "fromExcel", "type": "BigDecimal", "scale": 2, "columnNumber": 4},
                {"queryType": "fromExcel", "type": "BigDecimal", "scale": 2, "columnNumber": 5}
              ]
            }
          }
        }
      },
      {
        "start": "8,2",
        "end": "57,2",
        "value": [
          {
            "domainType": "ProjectItem", "queryType": "fromFunction", "name": "buildProjectItem",
            "param": {
              "expenseItemIn": {"queryType": "fromParam", "key": "expenseId1"},
              "indexIn": 1,
              "amountIn": {"queryType": "fromExcel", "type": "BigDecimal", "scale": 2, "columnNumber": 3}
            }
          },
          {
            "domainType": "ProjectItem", "queryType": "fromFunction", "name": "buildProjectItem",
            "param": {
              "expenseItemIn": {"queryType": "fromParam", "key": "expenseId2"},
              "indexIn": 2,
              "amountIn": {"queryType": "fromExcel", "type": "BigDecimal", "scale": 2, "columnNumber": 4}
            }
          },
          {
            "domainType": "ProjectItem", "queryType": "fromFunction", "name": "buildProjectItem",
            "param": {
              "expenseItemIn": {"queryType": "fromParam", "key": "expenseId3"},
              "indexIn": 3,
              "amountIn": {"queryType": "fromExcel", "type": "BigDecimal", "scale": 2, "columnNumber": 5}
            }
          },
          {
            "domainType": "RelatedProjectItem", "queryType": "fromFunction", "name": "buildRelatedProject",
            "param": {
              "budgetObjectId": {"queryType": "fromParam", "type": "String", "key": "budgetItemId1"},
              "index": 1,
              "amountColumnIndex": 3
            }
          },
          {
            "domainType": "RelatedProjectItem", "queryType": "fromFunction", "name": "buildRelatedProject",
            "param": {
              "budgetObjectId": {"queryType": "fromParam", "type": "String", "key": "budgetItemId2"},
              "index": 2,
              "amountColumnIndex": 4
            }
          },
          {
            "domainType": "RelatedProjectItem", "queryType": "fromFunction", "name": "buildRelatedProject",
            "param": {
              "budgetObjectId": {"queryType": "fromParam", "type": "String", "key": "budgetItemId3"},
              "index": 3,
              "amountColumnIndex": 5
            }
          }
        ]
      },
      {
        "start": "8,3",
        "end": "57,3",
        "value": {
          "domainType": "AnnualCostPlanningData", "queryType": "fromFunction", "name": "buildProjectYearData",
          "param": {
            "budgetObjectId": {
              "store": "projectItem", "valueField": "id",
              "queryParam": {
                "projectId": {
                  "map": "projectNameAndIdMap",
                  "key": {"queryType": "fromExcel", "type": "String", "columnNumber": 1}
                },
                "expenseItemId": {"queryType": "fromParam", "key": "expenseId1"}
              }
            },
            "index": 1
          }
        }
      },
      {
        "start": "8,4",
        "end": "57,4",
        "value": {
          "domainType": "AnnualCostPlanningData", "queryType": "fromFunction", "name": "buildProjectYearData",
          "param": {
            "budgetObjectId": {
              "store": "projectItem", "valueField": "id",
              "queryParam": {
                "projectId": {
                  "map": "projectNameAndIdMap",
                  "key": {"queryType": "fromExcel", "type": "String", "columnNumber": 1}
                },
                "expenseItemId": {"queryType": "fromParam", "key": "expenseId2"}
              }
            },
            "index": 2
          }
        }
      },
      {
        "start": "8,5",
        "end": "57,5",
        "value": {
          "domainType": "AnnualCostPlanningData", "queryType": "fromFunction", "name": "buildProjectYearData",
          "param": {
            "budgetObjectId": {
              "store": "projectItem", "valueField": "id",
              "queryParam": {
                "projectId": {
                  "map": "projectNameAndIdMap",
                  "key": {"queryType": "fromExcel", "type": "String", "columnNumber": 1}
                },
                "expenseItemId": {"queryType": "fromParam", "key": "expenseId3"}
              }
            },
            "index": 3
          }
        }
      },
      {
        "start": "8,6",
        "end": "57,17",
        "value": {
          "domainType": "MonthlyCostPlanningData", "queryType": "fromFunction", "name": "buildProjectMonthData",
          "param": {
            "budgetObjectId": {
              "store": "projectItem", "valueField": "id",
              "queryParam": {
                "projectId": {
                  "map": "projectNameAndIdMap",
                  "key": {"queryType": "fromExcel", "type": "String", "columnNumber": 1}
                },
                "expenseItemId": {"queryType": "fromParam", "key": "expenseId1"}
              }
            },
            "index": 1
          }
        }
      },
      {
        "start": "8,18",
        "end": "57,29",
        "value": {
          "domainType": "MonthlyCostPlanningData", "queryType": "fromFunction", "name": "buildProjectMonthData",
          "param": {
            "budgetObjectId": {
              "store": "projectItem", "valueField": "id",
              "queryParam": {
                "projectId": {
                  "map": "projectNameAndIdMap",
                  "key": {"queryType": "fromExcel", "type": "String", "columnNumber": 1}
                },
                "expenseItemId": {"queryType": "fromParam", "key": "expenseId2"}
              }
            },
            "index": 2
          }
        }
      },
      {
        "start": "8,30",
        "end": "57,41",
        "value": {
          "domainType": "MonthlyCostPlanningData", "queryType": "fromFunction", "name": "buildProjectMonthData",
          "param": {
            "budgetObjectId": {
              "store": "projectItem", "valueField": "id",
              "queryParam": {
                "projectId": {
                  "map": "projectNameAndIdMap",
                  "key": {"queryType": "fromExcel", "type": "String", "columnNumber": 1}
                },
                "expenseItemId": {"queryType": "fromParam", "key": "expenseId3"}
              }
            },
            "index": 3
          }
        }
      }
    ],
    "deleteBy": {
      "Project": {"validType": "validStringEmpty", "key": "name"},
      "ProjectItem": [
        {"validType": "validStringEmpty", "key": "description"}
      ],
      "AnnualCostPlanningData": {"validType": "validBigDecimalZero", "key": "amount"},
      "MonthlyCostPlanningData": {"validType": "validBigDecimalZero", "key": "amount"}
    },
    "mergeTo": {
      "Project": {"store": "project"},
      "ProjectItem": {"store": "projectItem"},
      "RelatedProjectItem": {"store": "relatedProject"},
      "AnnualCostPlanningData": {"store": ["projectYearPlanning", "yearPlanning"]},
      "MonthlyCostPlanningData": {"store": ["projectMonthPlanning", "monthPlanning"]}
    },
    "associations": [
      {
        "from": "MonthlyCostPlanningData",
        "to": "ProjectItem",
        "references": {"budgetObjectId": "id"},
        "matchingFields": {"rowIndex": "rowIndex", "index": "index"},
        "fromMapRemoveFields": ["rowIndex", "index"]
      },
      {
        "from": "AnnualCostPlanningData",
        "to": "ProjectItem",
        "references": {"budgetObjectId": "id"},
        "matchingFields": {"rowIndex": "rowIndex", "index": "index"},
        "fromMapRemoveFields": ["rowIndex", "index"]
      },
      {
        "from": "RelatedProjectItem",
        "to": "ProjectItem",
        "references": {"projectId": "projectId", "projectItemId": "id"},
        "matchingFields": {"rowIndex": "rowIndex", "index": "index"},
        "fromMapRemoveFields": ["rowIndex", "index"]
      },
      {
        "from": "ProjectItem",
        "to": "Project",
        "references": {"projectId": "id", "projectCode": "code"},
        "matchingFields": {"rowIndex": "rowIndex"},
        "fromMapRemoveFields": ["rowIndex", "index"],
        "toMapRemoveFields": ["rowIndex"]
      }
    ]
  }
}