{
  "enabled": {"validType": "contains", "map": "itemGroupNameAndIdMap", "key": "key", "value": "#excelSheetIndex#"},
  "functions": {
    "buildZ10AndZ29ProjectItem": {
      "result": {
        "queryType": "mapGroup",
        "group": [
          {
            "domainId": {"queryType": "fromParam", "key": "domainId"},
            "code": "",
            "startTime": {"queryType": "fromParam", "type": "Date", "key": "startTime"},
            "endTime": {"queryType": "fromParam", "type": "Date", "key": "endTime"},
            "period": {"queryType": "fromParam", "key": "period"},
            "organizationId": {"queryType": "fromParam", "key": "organizationId"},
            "expenseItemId": {"queryType": "fromParam", "key": "expenseId"},
            "amount": {"queryType": "fromExcel", "type": "BigDecimal", "scale": 2, "columnNumber": 16},
            "description": {"queryType": "fromParam", "scale": 2, "key": "cellValue"},
            "rowIndex": {"queryType": "fromParam", "key": "rowNumber"}
          }, {
            "store": "projectItem",
            "valueField": {"id": "id", "code": "code"},
            "queryParam": {
              "storeIndex": 1
            }
          }
        ]
      }
    },
    "buildLevelProjectTravel": {
      "param": ["objectType"],
      "result": {
        "queryType": "mapGroup", "group": [
          {
            "objectType": {"queryType": "fromFunctionParam", "key": "objectType"},
            "levelCode": {
              "map": "levelNameAndCodeMap",
              "key": {"queryType": "fromExcel", "type": "String", "columnNumber": 2}
            },
            "objectAmount": {"queryType": "fromParam", "type": "BigDecimal", "scale": 2, "key": "cellValue"},
            "objectValue": {
              "map": "monthMap",
              "key": {"queryType": "fromExcel", "type": "String", "rowNumber": 6}
            },
            "rowIndex": 7
          }, {
            "id": {
              "store": "projectTravel",
              "valueField": "id",
              "queryParam": {
                "levelCode": {
                  "map": "levelNameAndCodeMap",
                  "key": {"queryType": "fromExcel", "type": "String", "columnNumber": 2}
                },
                "objectType": {"queryType": "fromFunctionParam", "key": "objectType"},
                "objectValue": {
                  "map": "monthMap",
                  "key": {"queryType": "fromExcel", "type": "String", "rowNumber": 6}
                }
              }
            }
          }
        ]
      }
    },
    "buildRelatedProject": {
      "result": {
        "queryType": "mapGroup", "group": [
          {
            "projectVersionId": {"queryType": "translate", "type": "Long", "value": "-1"},
            "setOfBooksId": {"queryType": "fromParam", "key": "setOfBooksId"},
            "organizationId": {"queryType": "fromParam", "key": "organizationId"},
            "period": {"queryType": "fromParam", "key": "period"},
            "dataType": {"queryType": "fromParam", "key": "projectDataType"},
            "domainId": {"queryType": "fromParam", "key": "domainId"},
            "budgetItemGroupId": {"queryType": "fromParam", "type": "Long", "key": "budgetItemGroupId"},
            "budgetObjectType": "BudgetItem",
            "budgetObjectId": {"queryType": "fromParam", "type": "String", "key": "budgetItemId"},
            "amount": {"queryType": "fromExcel", "type": "BigDecimal", "scale": 2, "columnNumber": 16},
            "rowIndex": 7
          },
          {
            "store": "relatedProject",
            "valueField": {"id": "id", "dataType": "dataType"},
            "queryParam": {"storeIndex": 1}
          }
        ]
      }
    },
    "buildProjectYearData": {
      "result": {
        "queryType": "mapGroup", "group": [
          {
            "setOfBooksId": {"queryType": "fromParam", "key": "setOfBooksId"},
            "organizationId": {"queryType": "fromParam", "key": "organizationId"},
            "period": {"queryType": "fromParam", "key": "period"},
            "dataType": {"queryType": "fromParam", "key": "projectDataType"},
            "domainId": {"queryType": "fromParam", "key": "domainId"},
            "budgetItemGroupId": {"queryType": "translate", "type": "Long", "value": "-1"},
            "budgetObjectType": "ProjectItem",
            "amount": {"queryType": "fromExcel", "type": "BigDecimal", "scale": 2, "columnNumber": 16},
            "rowIndex": 7
          },
          {
            "store": "projectYearPlanning",
            "valueField": {"id": "id", "dataType": "dataType"},
            "queryParam": {"storeIndex": 1}
          }
        ]
      }
    },
    "buildProjectMonthData": {
      "result": {
        "queryType": "mapGroup", "group": [
          {
            "setOfBooksId": {"queryType": "fromParam", "key": "setOfBooksId"},
            "organizationId": {"queryType": "fromParam", "key": "organizationId"},
            "period": {"map": "monthMap", "key": {"queryType": "fromExcel", "type": "String", "rowNumber": 6}},
            "dataType": {"queryType": "fromParam", "key": "projectDataType"},
            "domainId": {"queryType": "fromParam", "key": "domainId"},
            "budgetItemGroupId": {"queryType": "translate", "type": "Long", "value": "-1"},
            "budgetObjectType": "ProjectItem",
            "amount": {"queryType": "fromParam", "type": "BigDecimal", "scale": 2, "key": "cellValue"},
            "rowIndex": 7
          },
          {
            "map": "projectMonthPlanningMap",
            "valueField": {"id": "id", "dataType": "dataType"},
            "key": {
              "period": {"map": "monthMap", "key": {"queryType": "fromExcel", "type": "String", "rowNumber": 6}},
              "budgetObjectId": {
                "store": "projectItem",
                "valueField": "id",
                "queryParam": {"storeIndex": 1}
              }
            }
          }
        ]
      }
    },
    "buildYearData": {
      "result": {
        "queryType": "mapGroup", "group": [
          {
            "setOfBooksId": {"queryType": "fromParam", "key": "setOfBooksId"},
            "organizationId": {"queryType": "fromParam", "key": "organizationId"},
            "period": {"queryType": "fromParam", "key": "period"},
            "dataType": {"queryType": "fromParam", "key": "defaultPageDataType"},
            "domainId": {"queryType": "fromParam", "key": "domainId"},
            "budgetItemGroupId": {"queryType": "fromParam", "key": "budgetItemGroupId"},
            "budgetObjectType": "BudgetItem",
            "budgetObjectId": {"queryType": "fromParam", "type": "String", "key": "budgetItemId"},
            "amount": {"queryType": "fromExcel", "type": "BigDecimal", "scale": 2, "columnNumber": 16},
            "excelImportWithAssociations": false
          },
          {
            "store": "yearPlanning",
            "valueField": {"id": "id", "dataType": "dataType"},
            "queryParam": {"storeIndex": 1}
          }
        ]
      }
    },
    "buildMonthData": {
      "param": ["budgetObjectId"],
      "result": {
        "queryType": "mapGroup", "group": [
          {
            "setOfBooksId": {"queryType": "fromParam", "key": "setOfBooksId"},
            "organizationId": {"queryType": "fromParam", "key": "organizationId"},
            "period": {"map": "monthMap", "key": {"queryType": "fromExcel", "type": "String", "rowNumber": 6}},
            "dataType": {"queryType": "fromParam", "key": "defaultPageDataType"},
            "domainId": {"queryType": "fromParam", "key": "domainId"},
            "budgetItemGroupId": {"queryType": "fromParam", "type": "Long", "key": "budgetItemGroupId"},
            "budgetObjectType": "BudgetItem",
            "budgetObjectId": {"queryType": "fromParam", "type": "String", "key": "budgetItemId"},
            "amount": {"queryType": "fromParam", "type": "BigDecimal", "scale": 2, "key": "cellValue"},
            "excelImportWithAssociations": false
          },
          {
            "store": "monthPlanning",
            "valueField": {"id": "id", "dataType": "dataType"},
            "queryParam": {
              "period": {"map": "monthMap", "key": {"queryType": "fromExcel", "type": "String", "rowNumber": 6}}
            }
          }
        ]
      }
    }
  },
  "writeToExcel": {
    "initParam": {
      "budgetItemGroupId": {
        "queryType": "fromMap",
        "map": "itemGroupNameAndIdMap",
        "type": "Long",
        "key": "#excelSheetIndex#"
      },
      "projectDataType": "@@Project@@#dataType#@@",
      "pageDataType": "@@ProjectPlanning@@",
      "projectCategoryCode": "#projectCategoryCode#",
      "projectCategoryId": {"map": "projectCategoryCodeAndIdMap", "type": "Long", "key": "#projectCategoryCode#"},
      "expenseId": {"map": "expenseItemCodeAndIdMap", "type": "Long", "key": "#expenseItemCode#"},
      "budgetItemId": {"map": "expenseItemCodeAndBudgetItemIdMap", "type": "Long", "key": "#expenseItemCode#"}
    },
    "initStore": ["project", "projectItem", "projectMonthPlanning", "projectTravel"],
    "initMap": ["projectNameAndIdMap", "projectNameAndStatusMap", "levelNameAndCodeMap", "travelObjectNameAndCodeMap"],
    "rule": [
      {
        "start": "8,4", "end": "#pageEndIndex#,15",
        "value": {
          "store": "projectTravel",
          "valueField": "objectAmount",
          "queryParam": {
            "objectType": "Num",
            "objectValue": {"map": "monthMap", "key": {"queryType": "fromExcel", "type": "String", "rowNumber": 6}},
            "levelCode": {
              "map": "levelNameAndCodeMap",
              "key": {"queryType": "fromExcel", "type": "String", "columnNumber": 2}
            }
          }
        }
      }
    ]
  },
  "readFromExcel": {
    "initParam": {
      "budgetItemGroupId": {
        "queryType": "fromMap",
        "map": "itemGroupNameAndIdMap",
        "type": "Long",
        "key": "#excelSheetIndex#"
      },
      "projectDataType": "@@Project@@#dataType#@@",
      "pageDataType": "@@ProjectPlanning@@",
      "defaultPageDataType": "@@ProjectPlanning@@#dataType#@@",
      "startTime": "#year#-01-01",
      "endTime": "#year#-12-01",
      "projectCategoryCode": "#projectCategoryCode#",
      "projectCategoryId": {"map": "projectCategoryCodeAndIdMap", "type": "Long", "key": "#projectCategoryCode#"},
      "expenseId": {"map": "expenseItemCodeAndIdMap", "type": "Long", "key": "#expenseItemCode#"},
      "budgetItemId": {"map": "expenseItemCodeAndBudgetItemIdMap", "type": "Long", "key": "#expenseItemCode#"}
    },
    "dataValid": [
      {
        "start": "8,4", "end": "#pageEndIndex#,15", "validType": "nullOrPositive", "scale": 2,
        "message": "nullOrPositiveNotValidForZ10AndZ29"
      }
    ],
    "initStore": [
      "project", "projectItem", "relatedProject", "yearPlanning", "monthPlanning",
      "projectYearPlanning", "projectMonthPlanning", "projectTravel"
    ],
    "initMap": [
      "projectNameAndIdMap", "projectNameAndStatusMap", "levelNameAndCodeMap",
      "travelObjectNameAndCodeMap", "projectMonthPlanningMap"
    ],
    "rule": [
      {
        "start": "7,1", "end": "7,1",
        "value": [
          {"domainType": "AnnualCostPlanningData", "queryType": "fromFunction", "name": "buildYearData"},
          {
            "domainType": "Project", "queryType": "fromFunction", "name": "buildProject",
            "param": {
              "amountIn": {"queryType": "fromExcel", "type": "BigDecimal", "scale": 2, "columnNumber": 16}
            }
          },
          {"domainType": "ProjectItem", "queryType": "fromFunction", "name": "buildZ10AndZ29ProjectItem"},
          {"domainType": "RelatedProjectItem", "queryType": "fromFunction", "name": "buildRelatedProject"},
          {"domainType": "AnnualCostPlanningData", "queryType": "fromFunction", "name": "buildProjectYearData"}
        ]
      },
      {
        "start": "7,17", "end": "7,28",
        "value": [
          {"domainType": "MonthlyCostPlanningData", "queryType": "fromFunction", "name": "buildMonthData"},
          {"domainType": "MonthlyCostPlanningData", "queryType": "fromFunction", "name": "buildProjectMonthData"}
        ]
      },
      {
        "start": "8,3", "end": "#pageEndIndex#,3",
        "value": {
          "domainType": "ProjectTravel", "queryType": "fromFunction", "name": "buildLevelProjectTravel",
          "param": {"objectType": "Benchmark"}
        }
      },
      {
        "start": "8,4", "end": "#pageEndIndex#, 15",
        "value": {
          "domainType": "ProjectTravel", "queryType": "fromFunction", "name": "buildLevelProjectTravel",
          "param": {"objectType": "Num"}
        }
      },
      {
        "start": "8,16", "end": "#pageEndIndex#, 28",
        "value": {
          "domainType": "ProjectTravel", "queryType": "fromFunction", "name": "buildLevelProjectTravel",
          "param": {"objectType": "Amount"}
        }
      }
    ],
    "deleteBy": {
      "Project": {"validType": "validBigDecimalZero", "key": "amount"},
      "ProjectItem": [
        {"validType": "validStringEmpty", "key": "description"},
        {"validType": "validBigDecimalZero", "key": "amount"}
      ],
      "ProjectTravel": {"validType": "validBigDecimalZero", "key": "objectAmount"},
      "RelatedProjectItem": {"validType": "validBigDecimalZero", "key": "amount"},
      "AnnualCostPlanningData": {"validType": "validBigDecimalZero", "key": "amount"},
      "MonthlyCostPlanningData": {"validType": "validBigDecimalZero", "key": "amount"}
    },
    "mergeTo": {
      "Project": {"store": "project"},
      "ProjectItem": {"store": "projectItem"},
      "ProjectTravel": {"store": "projectTravel"},
      "RelatedProjectItem": {"store": "relatedProject"},
      "AnnualCostPlanningData": {"store": ["projectYearPlanning", "yearPlanning"]},
      "MonthlyCostPlanningData": {"store": ["projectMonthPlanning", "monthPlanning"]}
    },
    "associations": [
      {
        "from": "AnnualCostPlanningData",
        "to": "ProjectItem",
        "references": {"budgetObjectId": "id"},
        "matchingFields": {"rowIndex": "rowIndex"},
        "fromMapRemoveFields": ["rowIndex"]
      },
      {
        "from": "MonthlyCostPlanningData",
        "to": "ProjectItem",
        "references": {"budgetObjectId": "id"},
        "matchingFields": {"rowIndex": "rowIndex"},
        "fromMapRemoveFields": ["rowIndex"]
      },
      {
        "from": "RelatedProjectItem",
        "to": "ProjectItem",
        "references": {"projectId": "projectId", "projectItemId": "id"},
        "matchingFields": {"rowIndex": "rowIndex"},
        "fromMapRemoveFields": ["rowIndex"]
      },
      {
        "from": "ProjectItem",
        "to": "Project",
        "references": {"projectId": "id", "projectCode": "code"},
        "matchingFields": {"rowIndex": "rowIndex"},
        "fromMapRemoveFields": ["rowIndex"]
      },
      {
        "from": "ProjectTravel",
        "to": "Project",
        "references": {"projectId": "id"},
        "matchingFields": {"rowIndex": "rowIndex"},
        "fromMapRemoveFields": ["rowIndex"],
        "toMapRemoveFields": ["rowIndex"]
      }
    ]
  }
}