{
  "enabled": {
    "validType": "contains",
    "map": "itemGroupNameAndIdMap",
    "key": "key",
    "value": "#excelSheetIndex#"
  },
  "functions": {
    "buildRelatedProject": {
      "result": {
        "queryType": "mapGroup", "group": [
          {
            "projectVersionId": {"queryType": "translate", "type": "Long", "value": "-1"},
            "setOfBooksId": {"queryType": "fromParam", "key": "setOfBooksId"},
            "organizationId": {"queryType": "fromParam", "key": "organizationId"},
            "period": {"queryType": "fromParam", "key": "period"},
            "dataType": {"queryType": "fromParam", "key": "projectDataType"},
            "domainId": {"queryType": "fromParam", "key": "domainId"},
            "budgetItemGroupId": {"queryType": "fromParam", "type": "Long", "key": "budgetItemGroupId"},
            "budgetObjectType": "BudgetItem",
            "budgetObjectId": {"queryType": "fromParam", "type": "String", "key": "budgetItemId1"},
            "rowIndex": {"queryType": "fromParam", "key": "rowNumber"},
            "amount": {"queryType": "fromExcel", "type": "BigDecimal", "default":0, "scale": 2, "columnNumber": 6}
          },
          {
            "store": "relatedProject",
            "valueField": {"id": "id", "dataType": "dataType"},
            "queryParam": {
              "projectId": {
                "map": "projectNameAndIdMap",
                "key": {"queryType": "fromExcel", "type": "String", "columnNumber": 1}
              }
            }
          }
        ]
      }
    },
    "buildProjectYearData": {
      "param": ["budgetObjectId"],
      "result": {
        "queryType": "mapGroup", "group": [
          {
            "setOfBooksId": {"queryType": "fromParam", "key": "setOfBooksId"},
            "organizationId": {"queryType": "fromParam", "key": "organizationId"},
            "period": {"queryType": "fromParam", "key": "period"},
            "dataType": {"queryType": "fromParam", "key": "projectDataType"},
            "domainId": {"queryType": "fromParam", "key": "domainId"},
            "budgetItemGroupId": {"queryType": "translate", "type": "Long", "value": "-1"},
            "budgetObjectType": "ProjectItem",
            "amount": {"queryType": "fromParam", "type": "BigDecimal", "default":0, "scale": 2, "key": "cellValue"},
            "rowIndex": {"queryType": "fromParam", "key": "rowNumber"}
          },
          {
            "store": "projectYearPlanning",
            "valueField": {"id": "id", "dataType": "dataType"},
            "queryParam": {
              "budgetObjectId": {"queryType": "fromFunctionParam", "key": "budgetObjectId"}
            }
          }
        ]
      }
    },
    "buildProjectMonthData": {
      "param": ["budgetObjectId"],
      "result": {
        "queryType": "mapGroup", "group": [
          {
            "setOfBooksId": {"queryType": "fromParam", "key": "setOfBooksId"},
            "organizationId": {"queryType": "fromParam", "key": "organizationId"},
            "period": {"map": "monthMap", "key": {"queryType": "fromExcel", "type": "String", "rowNumber": #periodRow#}},
            "dataType": {"queryType": "fromParam", "key": "projectDataType"},
            "domainId": {"queryType": "fromParam", "key": "domainId"},
            "budgetItemGroupId": {"queryType": "translate", "type": "Long", "value": "-1"},
            "budgetObjectType": "ProjectItem",
            "amount": {"queryType": "fromParam", "type": "BigDecimal", "default":0, "scale": 2, "key": "cellValue"},
            "rowIndex": {"queryType": "fromParam", "key": "rowNumber"}
          },
          {
            "map": "projectMonthPlanningMap",
            "valueField": {"id": "id", "dataType": "dataType"},
            "key": {
              "period": {"map": "monthMap", "key": {"queryType": "fromExcel", "type": "String", "rowNumber": #periodRow#}},
              "budgetObjectId": {"queryType": "fromFunctionParam", "key": "budgetObjectId"}
            }
          }
        ]
      }
    },
    "buildYearData": {
      "result": {
        "queryType": "mapGroup", "group": [
          {
            "setOfBooksId": {"queryType": "fromParam", "key": "setOfBooksId"},
            "organizationId": {"queryType": "fromParam", "key": "organizationId"},
            "period": {"queryType": "fromParam", "key": "period"},
            "dataType": {"queryType": "fromParam", "key": "defaultPageDataType"},
            "domainId": {"queryType": "fromParam", "key": "domainId"},
            "budgetItemGroupId": {"queryType": "fromParam", "type": "Long", "key": "budgetItemGroupId"},
            "budgetObjectType": "BudgetItem",
            "budgetObjectId": {"queryType": "fromParam", "type": "String", "key": "budgetItemId1"},
            "amount": {"queryType": "fromParam", "type": "BigDecimal", "default":0, "scale": 2, "key": "cellValue"},
            "excelImportWithAssociations": false
          },
          {
            "store": "yearPlanning",
            "valueField": {"id": "id", "dataType": "dataType"},
            "queryParam": {"storeIndex": 1}
          }
        ]
      }
    },
    "buildMonthData": {
      "result": {
        "queryType": "mapGroup", "group": [
          {
            "setOfBooksId": {"queryType": "fromParam", "key": "setOfBooksId"},
            "organizationId": {"queryType": "fromParam", "key": "organizationId"},
            "period": {"map": "monthMap", "key": {"queryType": "fromExcel", "type": "String", "rowNumber": #periodRow#}},
            "dataType": {"queryType": "fromParam", "key": "defaultPageDataType"},
            "domainId": {"queryType": "fromParam", "key": "domainId"},
            "budgetItemGroupId": {"queryType": "fromParam", "type": "Long", "key": "budgetItemGroupId"},
            "budgetObjectType": "BudgetItem",
            "budgetObjectId": {"queryType": "fromParam", "type": "String", "key": "budgetItemId1"},
            "amount": {"queryType": "fromParam", "type": "BigDecimal", "scale": 2, "key": "cellValue"},
            "excelImportWithAssociations": false
          },
          {
            "store": "monthPlanning",
            "valueField": {"id": "id", "dataType": "dataType"},
            "queryParam": {
              "period": {"map": "monthMap", "key": {"queryType": "fromExcel", "type": "String", "rowNumber": #periodRow#}}
            }
          }
        ]
      }
    },
    "buildProjectItemOtherData": {
      "result": {
        "queryType": "mapGroup",
        "group": [
          {
            "days": {"queryType": "fromParam", "type": "BigDecimal", "scale": 2, "key": "cellValue"},
            "num": {"queryType": "fromExcel", "type": "BigDecimal", "scale": 2, "columnNumber": 4},
            "cityName": {"queryType": "fromExcel", "type": "String", "columnNumber": 5},
            "rowIndex": {"queryType": "fromParam", "key": "rowNumber"}
          }, {
            "id": {
              "store": "projectItemOther",
              "valueField": "id",
              "queryParam": {
                "projectId": {
                  "map": "projectNameAndIdMap",
                  "key": {"queryType": "fromExcel", "type": "String", "columnNumber": 1}
                }
              }
            }
          }
        ]
      }
    }
  },
  "writeToExcel": {
    "initParam": {
      "budgetItemGroupId": {
        "queryType": "fromMap",
        "map": "itemGroupNameAndIdMap",
        "type": "Long",
        "key": "#excelSheetIndex#"
      },
      "projectDataType": "@@Project@@#dataType#@@",
      "pageDataType": "@@ProjectPlanning@@",
      "projectCategoryCode": "#projectCategoryCode#",
      "projectCategoryId": {"map": "projectCategoryCodeAndIdMap", "type": "Long", "key": "#projectCategoryCode#"},
      "expenseId1": {"map": "expenseItemCodeAndIdMap", "type": "Long", "key": "#expenseItemCode#"},
      "budgetItemId1": {"map": "expenseItemCodeAndBudgetItemIdMap", "type": "Long", "key": "#expenseItemCode#"}
    },
    "initStore": ["project", "projectItem", "projectYearPlanning", "projectMonthPlanning", "projectItemOther"],
    "initMap": ["projectNameAndIdMap", "projectMonthPlanningMap"],
    "rule": [
      {
        "start": "#pageStartRow#,1", "end": "#pageEndRow#,1",
        "value": {
          "store": "project",
          "valueField": "name",
          "queryParam": {
            "storeIndex": {"queryType": "fromExcel", "type": "Integer", "columnNumber": 0}
          }
        }
      },
      {
        "start": "#pageStartRow#,2", "end": "#pageEndRow#,2",
        "value": {
          "store": "projectItem",
          "valueField": "description",
          "queryParam": {
            "projectId": {
              "map": "projectNameAndIdMap",
              "key": {"queryType": "fromExcel", "type": "String", "columnNumber": 1}
            }
          }
        }
      },
      {
        "start": "#pageStartRow#,3", "end": "#pageEndRow#,3",
        "value": {
          "store": "projectItemOther",
          "valueField": "days",
          "queryParam": {
            "projectId": {
              "map": "projectNameAndIdMap",
              "key": {"queryType": "fromExcel", "type": "String", "columnNumber": 1}
            }
          }
        }
      },
      {
        "start": "#pageStartRow#,4", "end": "#pageEndRow#,4",
        "value": {
          "store": "projectItemOther",
          "valueField": "num",
          "queryParam": {
            "projectId": {
              "map": "projectNameAndIdMap",
              "key": {"queryType": "fromExcel", "type": "String", "columnNumber": 1}
            }
          }
        }
      },
      {
        "start": "#pageStartRow#,5", "end": "#pageEndRow#,5",
        "value": {
          "store": "projectItemOther",
          "valueField": "cityName",
          "queryParam": {
            "projectId": {
              "map": "projectNameAndIdMap",
              "key": {"queryType": "fromExcel", "type": "String", "columnNumber": 1}
            }
          }
        }
      },
      {
        "start": "#pageStartRow#,6", "end": "#pageEndRow#,6",
        "value": {
          "store": "projectYearPlanning",
          "valueField": "amount",
          "queryParam": {
            "budgetObjectId": {
              "store": "projectItem", "valueField": "id", "type": "String",
              "queryParam": {
                "projectId": {
                  "map": "projectNameAndIdMap",
                  "key": {"queryType": "fromExcel", "type": "String", "columnNumber": 1}
                }
              }
            }
          }
        }
      },
      {
        "start": "#pageStartRow#,7", "end": "#pageEndRow#,18",
        "value": {
          "map": "projectMonthPlanningMap",
          "valueField": "amount",
          "key": {
            "period": {"map": "monthMap", "key": {"queryType": "fromExcel", "type": "String", "rowNumber": #periodRow#}},
            "budgetObjectId": {
              "store": "projectItem", "valueField": "id", "type": "String",
              "queryParam": {
                "projectId": {
                  "map": "projectNameAndIdMap",
                  "key": {"queryType": "fromExcel", "type": "String", "columnNumber": 1}
                }
              }
            }
          }
        }
      }
    ]
  },
  "readFromExcel": {
    "initParam": {
      "budgetItemGroupId": {
        "queryType": "fromMap",
        "map": "itemGroupNameAndIdMap",
        "type": "Long",
        "key": "#excelSheetIndex#"
      },
      "projectDataType": "@@Project@@#dataType#@@",
      "pageDataType": "@@ProjectPlanning@@",
      "defaultPageDataType": "@@ProjectPlanning@@#dataType#@@",
      "startTime": "#year#-01-01",
      "endTime": "#year#-12-01",
      "projectCategoryCode": "#projectCategoryCode#",
      "projectCategoryId": {"map": "projectCategoryCodeAndIdMap", "type": "Long", "key": "#projectCategoryCode#"},
      "expenseId1": {"map": "expenseItemCodeAndIdMap", "type": "Long", "key": "#expenseItemCode#"},
      "budgetItemId1": {"map": "expenseItemCodeAndBudgetItemIdMap", "type": "Long", "key": "#expenseItemCode#"}
    },
    "dataValid": [
      {
        "start": "7,6", "end": "56,18", "validType": "nullOrPositive", "scale": 2,
        "message": "nullOrPositiveNotValid"
      },
      {
        "start": "7,1", "end": "56,1", "validType": "unique", "message": "uniqueNotValid"
      },
      {
        "startRow": 7, "endRow": 56, "validType": "synchronously",
        "items": [
          {"columnNumber": 1, "type": "String", "validType": "notEmpty"},
          {"columnNumber": 2, "type": "String", "validType": "notEmpty"}
        ],
        "message": "synchronouslyNotValid"
      }
    ],
    "initStore": [
      "project", "projectItem", "relatedProject", "yearPlanning", "monthPlanning",
      "projectYearPlanning", "projectMonthPlanning", "projectItemOther"
    ],
    "initMap": ["projectNameAndIdMap", "projectNameAndStatusMap", "projectMonthPlanningMap"],
    "rule": [
      {
        "start": "#statRow#,6", "end": "#statRow#,6",
        "value": {"domainType": "AnnualCostPlanningData", "queryType": "fromFunction", "name": "buildYearData"}
      },
      {
        "start": "#statRow#,7", "end": "#statRow#,18",
        "value": {"domainType": "MonthlyCostPlanningData", "queryType": "fromFunction", "name": "buildMonthData"}
      },
      {
        "start": "#pageStartRow#,1", "end": "#pageEndRow#,1",
        "value": {
          "domainType": "Project", "queryType": "fromFunction", "name": "buildProject",
          "param": {
            "amountIn": {"queryType": "fromExcel", "type": "BigDecimal", "scale": 2, "columnNumber": 6}
          }
        }
      },
      {
        "start": "#pageStartRow#,2",
        "end": "#pageEndRow#,2",
        "value": [
          {
            "domainType": "ProjectItem", "queryType": "fromFunction", "name": "buildProjectItem",
            "param": {
              "expenseItemIn":  {"queryType": "fromParam", "key": "expenseId1"},
              "indexIn": 1,
              "amountIn": {"queryType": "fromExcel", "type": "BigDecimal", "scale": 2, "columnNumber": 6}
            }
          },
          {"domainType": "RelatedProjectItem", "queryType": "fromFunction", "name": "buildRelatedProject"}
        ]
      },
      {
        "start": "#pageStartRow#,3",
        "end": "#pageEndRow#,3",
        "value": {
          "domainType": "ProjectItemOther", "queryType": "fromFunction", "name": "buildProjectItemOtherData"
        }
      },
      {
        "start": "#pageStartRow#,6",
        "end": "#pageEndRow#,6",
        "value": {
          "domainType": "AnnualCostPlanningData", "queryType": "fromFunction", "name": "buildProjectYearData",
          "param": {
            "budgetObjectId": {
              "store": "projectItem", "valueField": "id", "type": "String",
              "queryParam": {
                "projectId": {
                  "map": "projectNameAndIdMap",
                  "key": {"queryType": "fromExcel", "type": "String", "columnNumber": 1}
                }
              }
            }
          }
        }
      },
      {
        "start": "#pageStartRow#,7",
        "end": "#pageEndRow#,18",
        "value": {
          "domainType": "MonthlyCostPlanningData", "queryType": "fromFunction", "name": "buildProjectMonthData",
          "param": {
            "budgetObjectId": {
              "store": "projectItem", "valueField": "id", "type": "String",
              "queryParam": {
                "projectId": {
                  "map": "projectNameAndIdMap",
                  "key": {"queryType": "fromExcel", "type": "String", "columnNumber": 1}
                }
              }
            }
          }
        }
      }
    ],
    "deleteBy": {
      "Project": {"validType": "validStringEmpty", "key": "name"},
      "ProjectItem": [
        {"validType": "validStringEmpty", "key": "description"}
      ],
      "ProjectItemOther": {"validType": "validStringEmpty", "key": "cityName"},
      "AnnualCostPlanningData": {"validType": "validBigDecimalZero", "key": "amount"},
      "MonthlyCostPlanningData": {"validType": "validBigDecimalZero", "key": "amount"}
    },
    "mergeTo": {
      "Project": {"store": "project"},
      "ProjectItem": {"store": "projectItem"},
      "ProjectItemOther": {"store": "projectItemOther"},
      "RelatedProjectItem": {"store": "relatedProject"},
      "AnnualCostPlanningData": {"store": ["projectYearPlanning", "yearPlanning"]},
      "MonthlyCostPlanningData": {"store": ["projectMonthPlanning", "monthPlanning"]}
    },
    "associations": [
      {
        "from": "MonthlyCostPlanningData",
        "to": "ProjectItem",
        "references": {"budgetObjectId": "id"},
        "matchingFields": {"rowIndex": "rowIndex"},
        "fromMapRemoveFields": ["rowIndex"]
      },
      {
        "from": "AnnualCostPlanningData",
        "to": "ProjectItem",
        "references": {"budgetObjectId": "id"},
        "matchingFields": {"rowIndex": "rowIndex"},
        "fromMapRemoveFields": ["rowIndex"]
      },
      {
        "from": "RelatedProjectItem",
        "to": "ProjectItem",
        "references": {"projectId": "projectId", "projectItemId": "id"},
        "matchingFields": {"rowIndex": "rowIndex"},
        "fromMapRemoveFields": ["rowIndex"]
      },
      {
        "from": "ProjectItemOther",
        "to": "ProjectItem",
        "references": {"projectId": "projectId", "projectItemId": "id"},
        "matchingFields": {"rowIndex": "rowIndex"},
        "fromMapRemoveFields": ["rowIndex"]
      },
      {
        "from": "ProjectItem",
        "to": "Project",
        "references": {"projectId": "id", "projectCode": "code"},
        "matchingFields": {"rowIndex": "rowIndex"},
        "fromMapRemoveFields": ["rowIndex"],
        "toMapRemoveFields": ["rowIndex"]
      }
    ]
  }
}