{
  "queryType": "read",
  "type": "AnnualCostPlanningData",
  "conditions": [
    { "field": "period", "condition": "EQUALS", "type": "String", "value": "#period#" },
    { "field": "organizationId", "condition": "EQUALS",  "type": "Long",  "value": "#organizationId#" },
    { "field": "setOfBooksId", "condition": "EQUALS", "type": "Long", "value": "#setOfBooksId#"  }
  ]
}