{
  "queryType": "read",
  "type": "MonthlyCostPlanningData",
  "fields": {
    "id": "id",
    "amount": "amount",
    "note": "note",
    "status": "status",
    "period": "period",
    "setOfBooksId": "setOfBooksId",
    "organizationId": "organizationId",
    "budgetObjectId": "budgetObjectId",
    "dataType": "dataType"
  },
  "joins": [
    {
      "type": "ProjectItem", "fields": {"id": "projectItemId"},
      "joins": [
        {
          "type": "Project", "fields": {"projectCategoryId": "projectCategoryId"},
          "conditions": [
            {"field": "id", "condition": "EQUALS", "type": "Field", "value": "projectId"}
          ]
        },
        {
          "type": "RelatedProjectItem",
          "fields": {
            "period": "relatedProjectPeriod"
          },
          "conditions": [
            {"field": "projectId", "condition": "EQUALS", "type": "Field", "value": "projectId"},
            {"field": "projectItemId", "condition": "EQUALS", "type": "Field", "value": "id"}
          ]
        }
      ],
      "conditions": [
        {"field": "id", "condition": "EQUALS", "type": "Field", "value": "budgetObjectId"}
      ]
    }
  ],
  "conditions": [
    {"field": "relatedProjectPeriod", "condition": "STARTS_WITH", "type": "String", "value": "#year#"},
    {"field": "organizationId", "condition": "EQUALS", "type": "Long", "value": "#organizationId#"},
    {"field": "setOfBooksId", "condition": "EQUALS", "type": "Long", "value": "#setOfBooksId#"},
    {"field": "dataType", "condition": "STARTS_WITH", "type": "String", "value": "@@Project@@"}
  ]
}