{
  "queryType": "fromGlobalStore",
  "store": "allProjectMonthPlanning",
  "conditions": [
    {"field": "projectCategoryId", "condition": "EQUALS", "type": "Long", "value": "projectCategoryId"}
  ]
}