{
  "1月": "#year#01", 
  "2月": "#year#02", 
  "3月": "#year#03", 
  "4月": "#year#04", 
  "5月": "#year#05", 
  "6月": "#year#06",
  "7月": "#year#07", 
  "8月": "#year#08", 
  "9月": "#year#09",
  "10月": "#year#10",
  "11月": "#year#11", 
  "12月": "#year#12"
}