{
  "queryType": "read",
  "type": "BudgetItemGroupAssignment",
  "fields": {
    "budgetItemGroupId": "budgetItemGroupId",
    "period": "period",
    "organizationId": "organizationId",
    "businessType": "businessType"
  },
  "joins": [
    {
      "type": "BudgetItemGroup", "fields": {"name": "budgetItemGroupName", "alias": "budgetItemGroupAlias"},
      "conditions": [
        {"field": "id", "condition": "EQUALS", "type": "Field", "value": "budgetItemGroupId"}
      ]
    }
  ],
  "conditions": [
    {"field": "period", "condition": "EQUALS", "type": "String", "value": "#period#"},
    {"field": "organizationId", "condition": "EQUALS", "type": "Long", "value": "#organizationId#"},
    {"field": "businessType", "condition": "EQUALS", "type": "String", "value": "#businessType#"}
  ]
}
