{
  "queryType": "read",
  "type": "AssetsItemData",
  "conditions": [
    {"field": "domainId", "condition": "EQUALS", "type": "String", "value": "#domainId#"},
    { "field": "period", "condition": "EQUALS", "type": "String", "value": "#period#" },
    { "field": "organizationId", "condition": "EQUALS",  "type": "Long",  "value": "#organizationId#"},
    { "field": "budgetObjectType", "condition": "EQUALS", "type": "String", "value": "#businessType#"}
  ]
}