{
  "queryType": "read",
  "type": "BudgetItemGroupItem",
  "fields": {
    "domainId": "domainId",
    "budgetItemGroupId": "budgetItemGroupId",
    "budgetItemId": "budgetItemId",
    "alias": "alias"
  },
  "conditions": [
    {"field": "domainId", "condition": "EQUALS", "type": "String", "value": "#domainId#"}
  ]
}
